module gitlab.com/david-kalmakoff/learn-go-crypto

go 1.21.3

require github.com/ethereum/go-ethereum v1.13.5

require (
	github.com/btcsuite/btcd/btcec/v2 v2.2.0 // indirect
	github.com/decred/dcrd/dcrec/secp256k1/v4 v4.0.1 // indirect
	github.com/google/go-cmp v0.6.0
	github.com/holiman/uint256 v1.2.3 // indirect
	golang.org/x/crypto v0.14.0 // indirect
	golang.org/x/sys v0.13.0 // indirect
)
